№|ПІБ|Ф-т|Курс|Група|Кафедра|Країна|Місто|Заклад|Дата від'їзду|Дата приїзду|Програма|№ Наказу|Джерело фінансування|Примітки|Напрям підготовки|Тривалість навчаня (місяць)|Контакти
||||||2010 - 2 семестр||||||||||||
1.|Сомок                                        Василина Володимирівна|ФММ|5|УЕ-51М|Кафедра економіки і підприємства|Французька Республіка|м. Ман    |Університет Мена|01/02/2010|30/06/2010|Програма подвійного диплому | Н№197с  від 01.02 2010 Куратор  Н№  197с від 01.02.2010 ||Подовження індивідуального графіка|магістр|||
2.|Кудінова                                    Марина Олександрівна|ХТФ|5|ХН-52|Кафедра технології неорганічних речовин та загальної хімічної технології |Французька Республіка               |м. Ман    |Факультет науки і техніки Ураїнсько-французька  програма |15/02/2010|31/08/2010|Програма подвійного диплому         | Н№ 561-с від15.02.2010р.   Куратрор   Н№ 561від15.02.2010р.||Подовження індивідуального графіка|магістр|||
3.|Демяненко                                 Павло Вітальович |ХТФ|5|ХП-51|Кафедра хімічної технології композиційних матеріалів |Французька Республіка                |м. Ман    |Факультет науки і техніки Ураїнсько-французька  програма |15/02/2010|31/08/2010|Програма подвійного диплому           |Н№ 561-с від15.02.2010р.   Куратрор   Н№ 561від15.02.2010р.||Подовження індивідуального графіка|магістр|||
4.|Ковалінський                              Олександр Олександрович|ХТФ|5|ХН-51|Кафедра технології неорганічних речовин та загальної хімічної технології |Французька Республіка                |м. Ман  |Факультет науки і техніки Ураїнсько-французька  програма |15/02/2010|31/08/2010|Програма подвійного диплому         | Н№ 561-с від15.02.2010р.   Куратрор   Н№ 561від15.02.2010р. ||Подовження індивідуального графіка|магістр|||
5|Окусок                                           Анна Вікторівна |ХТФ|5|ХН-51|Кафедра технології неорганічних речовин та загальної хімічної технології |Французька Республіка                   |м. Ман    |Факультет науки і техніки Ураїнсько-французька  програма |15/02/2010|31/08/2010|Програма подвійного диплому          |Н№ 561-с від15.02.2010р.   Куратрор   Н№ 561від15.02.2010р. ||Подовження індивідуального графіка|магістр|||
6|Толошняк                                    Тетяна Вадимівна|ХТФ|5|ХК-52|Кафедра технології композиційних матеріалів|Французька Республіка                |м. Ман    |Факультет науки і техніки Ураїнсько-французька  програма |15/02/2010|31/08/2010|Програма подвійного диплому         |  Н№ 561-с від15.02.2010р.   Куратрор   Н№ 561від15.02.2010р. ||Подовження індивідуального графіка|магістр|||
7.|Коршак                                  Володимир Олександрович|ФІОТ|4|ІС-63|Кафедра автоматизованих систем обробки інфмормації та управління| Грецька              Республіка                          |м. Афіни  |Університет Індіанаполіс|05/02/2010|25/06/2010|Програма подвійного диплому |Н№208/2с від 12.02.2010 КураторН№208/2с від 12.02.2010 ||Новий індивідуальний графік|спеціаліст|||
8.|Сергеєв                                     Олексій Сергійович  |ФІОТ|4|ІС-63|Кафедра автоматизованих систем обробки інфмормації та управління| Грецька              Республіка                           |м. Афіни |Університет Індіанаполіс|05/02/2010|25/06/2010|Програма подвійного диплому|Н№208/2с від 12.02.2010 КураторН№208/2с від 12.02.2010 ||Новий індивідуальний графік|спеціаліст|||
9.|Труняков                                  Валерій Ігорович|ФАКС|5|ВА-41|Кафедра автоматизації експериментальних досліджень|   Швейцарська Конфедерація |м. Цюріх  |Національний комітет IAESTE|01/03/2010|30/06/2010|Стажування   |Н№ 298/2-с від 15.03.2010р. |||магістр|3 місяці||
10.|Жмаєв                                   Євген Робртович|ХТФ|3|ХМ-71|Кафедра хімічної технології кераміки та скла |США ||Корнельський університет|28/06/2010|18/06/2010|Стажування | Н№1100-с від 09.06.2010||Новий індивідуальний графік|бакалавр|1 місяць||
||||||2010 - 1 семестр||||||||||||
1.|Мельник Софія Олександрівна|ФММ|5|УС-61м|Кафедра "Міжнародної економіки"|Французька Республіка|м.Ман|Університет Ман |10/09/2010|30/01/2011|Програма подвійного диплому |Н№2191с від 07.09.2010 Куратор Н№2191с від 07.09.2010 ||Новий індивідуальний графік|магістр|4 місяці||
2.|Болтрик Катерина Юріївна |ФММ|5|УЕ-61М|Кафедра "Економіки і підприємництва"|Французька Республіка|м.Ман|Університет Ман |01/09/2010|30/01/2011|Програма подвійного диплому |Н№2191с від 07.09.2010           Куратор Н№2191с від 07.09.2010 ||Новий індивідуальний графік|магістр|4 місяці||
3.|Тарасенко Анна Сергіївна|ФММ|5|УЕ-61М|Кафедра "Економіки і підприємництва"|Французька Республіка|м.Ман|Університет Ман |01/09/2010|30/01/2011|Програма подвійного диплому|Н№2191с від 07.09.2010          Куратор Н№2191с від 07.09.2010 ||Новий індивідуальний графік|магістр|4 місяці||
4.|Гончар Остап Олегович|ФЕЛ|4|ДЗ-71|Кафедра "Звукотехніки та реєстрації інформації"|Федеративна Республіка Німеччина|м. Падерборн|Університет Падерборн|15/09/2010|30/12/2010|Стажування |Н№2370-с від 04.10.2010 Куратор Н№2370-с від 04.10.2010| DAAD|Новий індивідуальний графік|бакалавр|3 місяці|masterx16@rambler.ru 0935810018|
5.|Єгоренков Артемій Анатолійович|ФЕЛ|4|ДЗ-71|Кафедра "Звукотехніки та реєстрації інформації"|Федеративна Республіка Німеччина|м. Вернигерод|Hochschule Niederrhein|01/10/2010|14/12/2010|Стажування |Н№2367-с від 04.10.2010 Куратор Н№2367-с від 04.10.2010| DAAD|Новий індивідуальний графік|бакалавр|3 місяці|632323312 eigorenkov@ukr.net|
6.|Довгич Гліб Валерійович|ФАКС|6|ВА52|Кафедра "Автоматизації експерементальних досліджень"|Федеративна Республіка Німеччина|м. Хемніц|TU Chemnitz|01/10/2010|31/12/2010|Стажування |Н№ 911/2с від 12.10.2010    Куратор Н№ 911/2с від 12.10.2010 | DAAD|Новий індивідуальний графік|магістр|2 місяці|gunslinger@ukr.net 0977573350|
7.|Черняк                                       Кирило  Миколайович|ФАКС|5|ВА-61|Кафедра автоматизації аксперементальних досліджень|Австрійська Республіка|м. Філлах|Infineon Technologies Austria AG|01/09/2010|31/01/2011|Стажування  | Н№783/2с   від31.08.2010  Куратор Н№783/2с   від31.08.2010                            |За рахунок приймаючої     сторони|Подовження індивідуального графіка|магістр|3 місяці|kiril.cherniak@Gmail|
8.|Труняков                                  Валерій Ігорович|ФАКС|6|ВА-41|Кафедра автоматизації експериментальних досліджень|Австрійська Республіка|м. Філлах|Infineon Technologies Austria AG|01/09/2010|31/01/2011|Стажування                              |Н№783/2с   від31.08.2010  Куратор Н№783/2с   від31.08.2010 |За рахунок приймаючої     сторони|Подовження індивідуального графіка|магістр|3 місяці|valerii.truniakov@gmail.com|
9.|Стрелець Тетяна Ігорівна|ФБТ|6|БТ-52|Кафедра "Промислова біотехнологія"|Федеративна Республіка Німеччина|м. Берлін|Інститут молекулярної фізіології рослин ім. М. Планка |01/09/2010|03/12/2010|Стажування                                |Н№772/2-с   від31.08.2010  Куратор  Н№772/2-с   від31.08.2010|За рахунок приймаючої     сторони|Новий індивідуальний графік||3 місяці||
10.|Манойленко Артем Костянтинович|ФБТ|4|БІ-71|Кафедра "Біотехніки та інженерії"|Федеративна Республіка Німеччина|м. Клаусталь|Інститут полімерних матеріалів та розробки пластмас |01/09/2010|28/12/2010|Стажування                              |Н№773/2с   від31.082010  Куратор Н№773/2с   від31.082010 |За рахунок приймаючої     сторони|Новий індивідуальний графік|бакалавр|2 місяці||
11.|Панічкіна Ольга Ігорівна |ФБТ|6|БТ-52|Кафедра "Промислова біотехнологія"|Федеративна Республіка Німеччина|м .Ахен|Рейнсько-Вестфальський технічний університет |01/09/2010|30/01/2011|Індивідуальна магістерська програма|Н№869/2с від 24.09.2010|Dr.Carl-Arthur Pastor Stiftung|Новий індивідуальний графік|магістр|4 місяці|skype:limkamasya|
12.|Щученко Владислав Юрійович |ІЕЕ|6|ОЗ-52|Кафедра інженерної екології |Королівство Норвегія|Норвегія|Телемарк Університет Коледж               Технологічний факульт|01/09/2010|15/12/2010| Індивідуальна магістерська програма             |Н№925/2с  від 19.10.2010|За рахунок Норвезької програми Quota Scheme|Новий індивідуальний графік|магістр|3 місяці||
13.|Тихоступ Олександр Андрійович|ВПІ|6|СТМ-51|Кафедра "Технології поліграфічного виробництва"|Федеративна Республіка Німеччина  |м. Лейпциг|Вища школа техніки, економіки та культури |01/09/2010|31/01/2011| Індивідуальна магістерська програма             |№ Н832/2c  від 14.09.2010 Куратор№ Н832/2c  від 14.09.2010 |За рахунок приймаючої     сторони|Нова академічна відпустка |магістр|4 місяці||
14.|Козленко Микола Вікторович|ФПМ|5|КМ-61|Кафедра "Прикладної математики"|Французька Республіка|м. Париж|Політехнічна школа|01/09/2010|31/01/2011|Програма подвійного диплому|Н№ 1985-с від 31.08.2010          Куратор Н№ 1985-с від 31.08.2010 |За рахунок приймаючої     сторони||магістр|4 місяці|Skype:mykola.ko        e-mail:mycola-k@ukr.net|
15.|Утлік                        Анна Валеріївна |ІТС|6|ТІ-52м|Кафедра "Інформаціно-телекомукаційні мережі"|Федеративна Республіка Німеччина  |м. Дрезден|Технічний університет Дрездена|01/10/2010|30/12/2010|Програма подвійного диплому                    |Н№ 2303-с від 22.09.2010 Куратор  Н№ 2303-с від 22.09.2010 |||магістр|2 місяці||
16.|Чайченко Андрій Миколайович|ІТС|6|ТІ-52м|Кафедра "Інформаціно-телекомукаційні мережі"|Федеративна Республіка Німеччина  |м. Дрезден|Технічний університет Дрездена|01/10/2010|30/12/2010|Програма подвійного диплому                        |Н№ 2303-с від 22.09.2010 Куратор  Н№ 2303-с від 22.09.2010      |||магістр|2 місяці||
17.|Касерес Антон |ІТС|6|ТІ-52м|Кафедра "Інформаціно-телекомукаційні мережі"|Федеративна Республіка Німеччина  |м. Дрезден|Технічний університет Дрездена|01/10/2010|30/12/2010|Програма подвійного диплому                   |Н№ 2303-с від 22.09.2010 Куратор  Н№ 2303-с від 22.09.2010 |||магістр|2 місяці||
18.|Цуманчук Любава Василівна|ХТФ|5|ХП-61|Кафедра "Хімічної технології композиційних матеріалів"|Французька Республіка|м.Ле Ман|Факультет науки і техніки |01/09/2010|30/01/2011|Програма подвійного диплому |Н№ 1975-с від 31.08.2010          Куратор Н№ 1975-с від 31.08.2010 |||магістр|4 місяці||
19.|Зайцев Андрій Васильович|ХТФ|5|ХП-61|Кафедра "Хімічної технології композиційних матеріалів"|Французька Республіка|м.Ле Ман|Факультет науки і техніки |01/09/2010|30/01/2011|Програма подвійного диплому|Н№ 1975-с від 31.08.2010          Куратор Н№ 1975-с від 31.08.2010 |||магістр|4 місяці||
20.|Пилипка Сергій Володимирович |ХТФ|5|ХС-61|Кафедра "Хімічної технології кераміки та скла"|Французька Республіка|м.Ле Ман|Факультет науки і техніки |01/09/2010|30/01/2011|Програма подвійного диплома |Н№ 1975-с від 31.08.2010          Куратор Н№ 1975-с від 31.08.2010 |||магістр|4 місяці||
21.|Колмиков Олексій Валерійович |ХТФ|5|ХМ-61|Кафедра "Хімічної технології кераміки та скла"|Французька Республіка|м.Ле Ман|Факультет науки і техніки |01/09/2010|30/01/2011|Програма подвійного диплому |Н№ 1975-с від 31.08.2010          Куратор Н№ 1975-с від 31.08.2010 |||магістр|4 місяці||
22.|Торлак Сергій Олександрович|ХТФ|5|ХО-61|Кафедра "Органічної хімії і технології органічних речовин"|Французька Республіка|м.Ле Ман|Факультет науки і техніки |01/09/2010|30/01/2011|Програма подвійного диплому|Н№ 1975-с від 31.08.2010          Куратор Н№ 1975-с від 31.08.2010 |||магістр|4 місяці||
23.|Решовська Таїсія Костянтинівна|ХТФ|5|ХО-61|Кафедра "Органічної хімії і технології органічних речовин"|Французька Республіка|м.Ле Ман|Факультет науки і техніки |01/09/2010|30/01/2011|Програма подвійного диплому|Н№ 1975-с від 31.08.2010          Куратор Н№ 1975-с від 31.08.2010 |||магістр|4 місяці||
24.|Дунчич Катерина Ярославівна|ХТФ|5|ХЕ-61|Кафедра "Технології електрохімічних виробництв"|Французька Республіка|м.Ле Ман|Факультет науки і техніки |01/09/2010|30/01/2011|Програма подвійного диплому|Н№ 1975-с від 31.08.2010          Куратор Н№ 1975-с від 31.08.2010 |||магістр|4 місяці||
25.|Схабіцька Анна Вадимівна |ХТФ|5|ХН-61|Кафедра "Технології неорганічних речовин  та зальної хімічної технології"|Французька Республіка|м.Ле Ман|Факультет науки і техніки |01/09/2010|30/01/2011|Програма подвійного диплому|Н№ 1975-с від 31.08.2010          Куратор Н№ 1975-с від 31.08.2010 |||магістр|4 місяці||
26.|Вакулко Іван Олегович|ХТФ|5|ХЕ-62|Кафедра "Технології електрохімічних виробництв"|Французька Республіка|м.Ле Ман|Факультет науки і техніки |01/09/2010|30/01/2011|Програма подвійного диплому|Н№ 1975-с від 31.08.2010          Куратор Н№ 1975-с від 31.08.2010 |||магістр|4 місяці||
27.|Толошняк                                    Тетяна Вадимівна|ХТФ|5|ХК-52|Кафедра технології композиційних матеріалів|Французька Республіка|м.Ле Ман|Факультет науки і техніки |01/09/2010|30/01/2011|Програма подвійного диплома |Н№ 1975-с від 31.08.2010          Куратор Н№ 1975-с від 31.08.2010 |||магістр|4 місяці||
28.|Ковалінський                              Олександр Олександрович|ХТФ|6|ХН-51|Кафедра "Технології неорганічних речовин та загальної хімічної технології" |Французька Республіка|м.Ле Ман|Факультет науки і техніки |01/09/2010|30/01/2011|Програма подвійного диплому|Н№ 1975-с від 31.08.2010          Куратор Н№ 1975-с від 31.08.2010 |||магістр|4 місяці||
29.|Кудінова                                    Марина Олександрівна|ХТФ|6|ХН-52|Кафедра технології неорганічних речовин та загальної хімічної технології |Французька Республіка|м.Ле Ман|Факультет науки і техніки |01/09/2010|30/01/2011|Програма подвійного диплому| Н№ 1975-с від 31.08.2010          Куратор Н№ 1975-с від 31.08.2010 |||магістр|4 місяці||
30.|Старостін Антон Ростиславович|ХТФ|5|ХА-61|Кафедра "Кібернетики хіміко-технологічних процесів"|Французька Республіка|м.Ле Ман|Факультет науки і техніки |01/09/2010|30/01/2011|Програма подвійного диплому |Н№ 1975-с від 31.08.2010          Куратор Н№ 1975-с від 31.08.2010 |||магістр|4 місяці||
31.|Климюк Ольга Олексіївна |ХТФ|5|ХА-61|Кафедра "Кібернетики хіміко-технологічних процесів"|Французька Республіка|м.Ле Ман|Факультет науки і техніки |01/09/2010|30/01/2011|Програма подвійного диплому| Н№ 1975-с від 31.08.2010          Куратор Н№ 1975-с від 31.08.2010 |||магістр|4 місяці||
32.|Демяненко                                 Павло Вітальович |ХТФ|6|ХП-51|Кафедра "Хімічної технології композиційних матеріалів" |Французька Республіка|м.Ле Ман|Факультет науки і техніки |01/09/2010|30/01/2011|Програма подвійного диплому |Н№ 1975-с від 31.08.2010 р.         Куратор Н№ 1975-с від 31.08.2010 |||магістр|4 місяці||
33.|Шевченко Костянтин Юрійович|ФІОТ|5|ІС-61|Кафедра автоматизованих систем обробки інфмормації та управління|Федеративна Республіка Німеччина|м. Мерзебург|Вища школа Мерзебурга (FH)|01/11/2010|31/01/2011|Стажування |Н№951/2с від 02.11.2010 р  Куратор Н№951/2с від 02.11.2010 р  |За рахунок приймаючої сторони|Новий індивідуальний графік|магістр|2 місяці|096-368-49-71          svehuk@gmail.com|
34.|Головатенко Олександр Анатолійович|ФІОТ|6|ІК-53|Кафедра "Технічної кібернетики"|Федеративна Республіка Німеччина|м. Мюнхен|Мюнхенський технічний університет|01/10/2010|31/01/2011|Індивідуальна магістерська програма |Н№902/2с від 11.10.2010 КураторН№902/2с від 11.10.2010|За рахунок приймаючої сторони|Новий індивідуальний графік|магістр|3 місяці|henrypuh@gmail.com|
35.|Хоменко Сергій Анатолійович |ФІОТ|4|ІО-73|Кафедра ОТ|Федеративна Республіка Німеччина|м. Мерзебург|Вища школа Мерзебурга (FH)|01/11/2010|31/01/2011|Стажування| Н№951/2с від 02.11.2010 р  Куратор Н№951/2с від 02.11.2010 р  |За рахунок приймаючої сторони|Новий індивідуальний графік|магістр|2 місяці|Khomenko@brainscode.com|
36.|Алещенко Олексій Вадимович|ФІОТ|5|ІО-61|Кафедра ОТ|Федеративна Республіка Німеччина|м. Мерзебург|Вища школа Мерзебурга (FH)|01/11/2010|31/01/2011|Стажування     |Н№951/2с від 02.11.2010 р  Куратор Н№951/2с від 02.11.2010 р  |За рахунок приймаючої сторони|Новий індивідуальний графік|магістр|2 місяці|alexey.aleshchenko@gmail.com|
37.|Троцько Сергій Олександрович | ФІОТ |4|ІА-71|Кафедра "АУТС"|Федеративна Республіка Німеччина|м. Мерзебург|Вища школа Мерзебурга (FH)|01/11/2010|31/01/2011|Стажування  |Н№936/2с від 26.10.2010    Куратор Н№936/2с від 26.10.2010 |За рахунок приймаючої сторони|Новий індивідуальний графік|бакалавр|2 місяці|0975567583 trotsia@ukr.net|
38.|Кривий                 Ярослав Михайлович|ФТІ|6|ФЕ-41|Кафедра фізико-технічних засобів захисту|Королівство Данія||Bang&Olufsen A/S|01/09/2010|29/12/2010|Стажування                                                                                                                                                                                                                                                                                                                                                                                                                                                                                                                                                                                                                                                                                                                                                                                                                                                                                                                                                                                                                                                                                                                                                                                                                                                                                                                                                                                                                                                                                                                                                                                                                                                                                                                                                                                                                                                                                                                                                                                                                                                                                                                                                    |Н№ 2162-с від 02.09.2010  Куратор Н№ 2162-с від 02.09.2010             |За рахунок приймаючої сторони|Новий індивідуальний графік|магістр|3 місяці|Ferum_m@mail.ru|                                                                                                                                                          
39.|Ботовська        Маряна Олександрівна|ФМФ|6|ОМ-51м|Кафедра математичного аналізу та теорії ймовірності|Федеративна Республіка Німеччина|м. Нюрнберг|Університет  Ерланген- Нюрнберг|18/10/2010|31/01/2011|Індивідуальна магістерська програма |Н№  2434   від 19.10.2010     КураторН№ від №  2434   від 19.10.2010     |За власний рахунок|Новий індивідуальний графік|магістр|3 місяці|mareeechka@gmail.com Skype:markiza_pompadur|
40.|Мотруніч              Анастасія Анатоліївна|ІПСА|5|КА-65м|Кафедра методи ситемного аналізу|Французька Республіка|м.Ле Ман|Факультет науки і техніки |01/09/2010|25/12/2010|Програма подвійного диплому |Розпорядженя № 7"д" від 06.09.2010|||магістр|||
41.|Самохатко Володимир Юрійович  |ІПСА|5|КА-65м|Кафедра методи ситемного аналізу|Французька Республіка|м.Ле Ман|Факультет науки і техніки |01/09/2010|25/12/2010|Програма подвійного диплому |Розпорядженя № 7"д" від 06.09.2010|||магістр|||
42.|Білявський Роман Вікторович|ІПСА|6|КА-52м|Кафедра методи ситемного аналізу|Французька Республіка|м. Париж|Політехнічна школа|01/09/2010|25/12/2010|Програма подвійного диплому |Розпорядженя № 7"д" від 06.09.2010|||магістр|||
43.|Іванова                Олена Сергіївна|ПБФ|5|ПМ-51|Кафедра приладобудування|Федеративна Республіка Німеччина |м.Штутгард|Університет м. Штутгарда|01/11/2010|18/01/2011|Індивідуальна магістрська програма |Н№  2575-c від 17.11.2010          ||Відрахована Н№2787-с від 30.12.2010 р.|магістр|||
