№|№ по Ф/І|ПІБ|Ф-т|Курс|Група|Кафедра|Країна|Місто|Заклад|Дата від'їзду|Дата приїзду|Програма|№ Наказу|Джерело фінансування|Примітки|Напрям підготовки|Тривалість навчаня (місяць)|Контакти|Наявність дипломів
2012 р. ІІ - семестр|||||||||||||||||||
1.|1.|Жуков Михайло Андрійович|ФЕЛ|6|ДМм-61|Фізичної та Біомедичної Електроніки|Федеративна Республіка Німеччина|м. Дрезден|Технічний університет Дрездена|23/01/2012|19/02/2012| Програма МОН Стажування|Н№ 194с від 23.01.2012|Фінансування здуснює МОНМтаС||магістр|1 місяць||
2|1.|Шалагацький Віктор Євгенович|ПБФ|6|ПМ-62м|Приладобудування|Французька Республіка|м. Ле Ман|Технічний університетМан |23/01/2012|19/02/2012|Співробітництво в рамках договору|Н№180-с від 23.01.2012|||магістр|1 місяць||
3|2.|Зарубієва Юлія Сергіївна|ПБФ|6|ПБ-52|Виробництва приладів|Республіка Корея    |м.Сеул|Корейський Інститут Науки та Технологій (КІСТ)|23/01/2012|19/02/2012|Програма подвійного диплому |Н№180-с від 23.01.2012|За рахунок приймаючої     сторони||магістр|1 місяць|skype;comealone88          e-mail;inliia.zarubiieva@gmail.com|Диплом КІСТ
4|3.|Фесенко Андрій Валерійович|ПБФ|6|ПО-62м|Оптичних та оптико-електронних приладів|Французька Республіка|м. Ле Ман|Технічний університетМан |01/02/2012|19/02/2012|Програма МОН Співробітництво в рамках конкурсу |Н№ 180-с від23.01.2012|Фінансування здуснює МОНМтаС||||afesenko@i.ua      skype:presssidentos            +38-093-055-54-04|
5|1.|Праховнік Артур Констянтинович|ІЕЕ|5|ОН-71| Електропостачання|Королівство Норвегія |м. Порсгрунн|Норвежський державний університет "Телемарк"|23/01/2012|31/05/2012|Співробітництво в рамках договору|Н№53/2с від20.01.2012|За рахунок приймаючої сторони||магістр|4 місяці||
6|2.|Пересунько Наталія Юріївна |ІЕЕ|6|ОН-62|Теплотехніки та енергозбереження|Королівство Норвегія |м. Порсгрунн|Норвежський державний університет "Телемарк"|23/01/2012|19/02/2012|Співробітництво в рамках договору|Н№ 39/2с від 20.01.2012|За рахунок приймаючої     сторони||магістр|1 місяць||
7|3.|Літовченко Аліна Констянтинівна |ІЕЕ|6|ОН-62| Теплотехніки та енергозбереження|Королівство Норвегія |м. Порсгрунн|Норвежський державний університет "Телемарк"|23/01/2012|19/02/2012|Програма обміну|Н№ 39/2с від 20.01.2012|За рахунок приймаючої     сторони||магістр|1 місяць||
8|4.|Левицький Олександр Олегович |ІЕЕ|6|ОН-51|Електропостачання|Республіка Корея    |м. Сеул|Національний Університет Кьонджу |23/01/2012|19/02/2012|Індивідуальна магістерська програма  |Н№ 39/2с від 20.01.2012|Фінансування здійснюється за рахунок Корейського Уряду||магістр|1 місяць|furfa@mail.ru             skype:sasho_modebadze|
9|1.|Коваленко Олександр Юрійович |ФМФ|5|ОФ-71|Загальної фізики та фізики твердого тіла|Французька Республіка|м.Ле Ман|Технічний університет |23/01/2012|31/05/2012|Програма подвійного диплому МОН|Н№ 166-с від 23.01.2012|За рахунок приймаючої     сторони||магістр|4 місяці||
10|2.|Гладій Ольга Ігорівна |ФМФ|5|ОФ-71|Загальної фізики та фізики твердого тіла|Французька Республіка|м.Ле Ман|Технічний університет |23/01/2012|31/05/2012|Програма подвійного диплому|Н№ 166-с від 23.01.2012|За рахунок приймаючої     сторони||магістр|4 місяці|gladiy_olga@ukr.net|
11|1.|Бриндзя Ольга Леонідівна|ВПІ|5|СРпм-71|Репрграфії|Королівство Норвегія |м. Йовік|Університетський Коледж Йовік|23/01/2012|31/08/2012|Програма обміну|41/2-с від 20.01.2012|За рахунок приймаючої     сторони||магістр|7 місяців|olya.bryndzia@gmail.com|
12|2.|Кіорпе Юлія В'ячеславівна |ВПІ|5|СМВМ-71|Репрграфії|Королівство Норвегія |м.Йовік|Університетський Коледж Йовік|23/01/2012|31/08/2012|Програма обміну|41/2-с від 20.01.2012|За рахунок приймаючої     сторони||магістр|7 місяців|Julia-Kiorpe@yandex.ru|
13|3.|Сіряк Юлія Вікторівна|ВПІ|5|СРпм-71|Репрграфії|Королівство Норвегія |м. Йовік|Університетський Коледж Йовік|23/01/2012|31/08/2012|Програма обміну|41/2-с від 20.01.2012|За рахунок приймаючої     сторони||магістр|7 місяців|bellisept@mail.ru|
14|4.|Дорофеєв Денис Дмитрович|ВПІ|5|СМВМ-71|Репрграфії|Королівство Норвегія |м. Йовік|Університетський Коледж Йовік|23/01/2012|31/08/2012|Програма обміну|41/2-с від 20.01.2012|За рахунок приймаючої     сторони||магістр|7 місяців|dor-denis@yandex.ru|
15|5.|Андросюк Дмитро Андрійович|ВПІ|5|СТ-71|Технології поліграфічного виробництва|Федеративна Республіка Німеччина|Вища школа,економіки та культури|Вища школа техніки |23/01/2012|31/08/2012|Програма обміну|41/2-с від 20.01.2012|||спеціаліст|||
16|6|Козій Катерина Олексіївна |ВПІ|3|СР93|Видавничої справи та редагування|Федеративна Республіка Німеччина|Вища школа,економіки та культури|Вища школа техніки |27/02/2012|31/08/2012|Програма обміну|Н№198/2с від 24.02.2012|||бакалавр||besspredely_da@mail.ru|
17|1.|Гаєвий Вадим Володимирович |ІТС|6|ТІ-62м|Кафедра Інформаційно-телекомунікаційних мереж|Федеративна Республіка Німеччина|м. Дрезден|Дрезденський технічний університет|23/01/2012|19/02/2012|Програма обміну|Н№142-с від 23.01.2012|За рахунок приймаючої     сторони||магістр||vadymg@hotmail.com|
18|2.|Кирилков Вадим Володимирович|ІТС|6|ТІ-62м|Кафедра Інформаційно-телекомунікаційних мереж|Федеративна Республіка Німеччина|м. Дрезден|Дрезденський технічний університет|23/01/2012|19/02/2012|Програма обміну|Н№142-с від 23.01.2012|За рахунок приймаючої     сторони||магістр||v.kirilkov@gmail.com|
19|1.|Трофімчук Олена Сергіївна |ФММ|5|УД-71м|Кафедра менеджменту |Королівство Швеція |м. Стокгольм|Королівський технічний інститут|23/01/2012|31/05/2012|Програма обміну|Н№ 245с від 23.01.2012|||магістр|||
20|2.|Мироненко Яна Сергіївна|ФММ|5|УВ-71м|Кафедра менеджменту |Королівство Швеція |м. Стокгольм|Королівський технічний інститут|23/01/2012|31/05/2012|Програма обміну|Н№ 255с від 23.01.2012|||магістр|||
21|3.|Мартиновський Ігор Георгійович|ФММ|5|УВ-71с|Кафедра "Менеджменту та маркетингу"|Французька Республіка|м. Ле Ман |Університет Ман |23/01/2012|18/03/2012|Програма подвійного диплому|Н№247с від 23.01.2012|За рахунок приймаючої     сторони||магістр||igor_martinovsky@mail.ru|
22|4.|Підмогильна Оксана Іванівна |ФММ|5|УМ-71м|Кафедра "Промислового маркетингу"|Французька Республіка|м. Ле Ман |Університет Ман |23/01/2012|18/03/2012|Програма подвійного диплому|Н№244с від 23.01.2012|За рахунок приймаючої     сторони||магістр||goldenhart@yandex.ru|
23|5.|Марісова Яна Владиславівна |ФММ|5|УІ-71м|Кафедра "Менеджменту та маркетингу"|Королівство Швеція |м. Стокгольм|Королівський технологічний інститут" |23/01/2012|31/05/2012|Програма обміну|Н№246с від 23.01.2012|За рахунок приймаючої     сторони||магістр|||
24|6.|Степаненко Євгенія Ігорівна|ФММ|5|УВ-71-с|Кафедра "Менеджменту та маркетингу"|Королівство Швеція |м. Стокгольм|Королівський технологічний інститут" |23/01/2012|18/03/2012|Програма обміну|Н№243с від 23.01.2012|За рахунок приймаючої     сторони||магістр|||
25|7.|Жидецький Цезарій Юрійович|ФММ|4|УЕ-81|Кафедра "Економіки і підприємництва"|Федеративна Республіка Німеччина||Вестфальський Вільгельмський Університет Мюнстер|23/01/2012|26/03/2012|Індивідуальна бакалаврська програма|Н№ 251с від 23.01.2012|За рахунок приймаючої     сторони||бакалавр|4 місяці|cesar.kpi@gmail.com|
26|1|Бахтоваршоєв Гіясіддін Алігавхарович|ФПМ|5|КВ-71м|Кафедра "Спеціалізовані компютерні системи" |Французька Республіка||Політехнічна школа|23/01/2012|31/05/2012|Співробітництво в рамках договору|Н№235-с від 23.01.2012|За рахунок приймаючої     сторони||магістр||ecureuilkpi@gmail.com|
27|1|Веражак Маряна Андріївна |ІФФ|5|ФМ-71|Кафедра "Фізика меалів"|Угорська Республіка||Дебреценський університет |23/01/2012|31/03/2012|Стажування  |Н№209-с від 23.01.2012|За рахунок приймаючої     сторони||магістр||avemaryana@gmail.com|
28|1.|Рогоза Ірина Валеріївна |ІПСА|5|КА-56м|Кафедра математичних методів ситемногого  аналізу|Республіка Корея            |м.Сеул|Корейський Інститут Науки та Технологій (КІСТ)|13/02/2012|15/05/2012|Програма подвійного диплому |Н№2д від 13.02.2012|За рахунок приймаючої сторони ||магістр||yomi.ua@gmail.ru|
29|1.|Охріменко Лариса Миколаївна |ХТФ|5|ХН-71|Кафедра "Технології неорганічних речовин  та зальної хімічної технології"|Французька Республіка|м. Ле Ман |Університет Ле Ман |23/01/2012|31/08/2012|Програма подвійного диплому|Н№220 від 23.01.2012|За рахунок приймаючої     сторони||магістр|4 місяці||
30||Зайцев Андрій Васильович|ХТФ|6|ХП-61|Кафедра "Хімічної технології композиційних матеріалів"|Французька Республіка|м.Ле Ман|Університет Ле Ман |23/01/2012|19/02/2012|Програма подвійного диплому|Н№219-с від 23.01.2012|За рахунок приймаючої     сторони||магістр| 4 місяців|zaytsevandr@gmail.com|
31||Торлак Сергій Олександрович|ХТФ|6|ХО-61|Кафедра "Органічної хімії і технології органічних речовин"|Французька Республіка|м.Ле Ман|Університет Ле Ман |23/01/2012|23/01/2012|Програма подвійного диплому|Н№219-с від 23.01.2012|За рахунок приймаючої     сторони||магістр|4 місяці|serg.torlak@ukr.net|
32||Решовська Таїсія Костянтинівна|ХТФ|6|ХО-61|Кафедра "Органічної хімії і технології органічних речовин"|Французька Республіка|м.Ле Ман|Університет Ле Ман |23/01/2012|19/02/2012|Програма подвійного диплому|Н№219-с від 23.01.2012|За рахунок приймаючої     сторони||магістр| 4 місяців|taisiua@bigmir.net|Диплом Ле Ман
33||Пилипко Сергій Володимирович |ХТФ|6|ХС-61|Кафедра "Хімічної технології кераміки та скла"|Французька Республіка|м.Ле Ман|Університет Ле Ман |23/01/2012|19/02/2012|Програма подвійного диплому |Н№219-с від 23.01.2012|За рахунок приймаючої     сторони||магістр| 4 місяців|pylypko_s@ukr.net|Диплом Ле Ман
34||Колмиков Олексій Валерійович |ХТФ|6|ХМ-61|Кафедра "Хімічної технології кераміки та скла"|Французька Республіка|м.Ле Ман|Університет Ле Ман |23/01/2012|19/02/2012|Програма подвійного диплому|Н№219-с від 23.01.2012|За рахунок приймаючої     сторони||магістр| 4 місяців|kolmykov.oleksii@gmail.com|Диплом Ле Ман
35||Вакулко Іван Олегович|ХТФ|6|ХЕ-62|Кафедра "Технології електрохімічних виробництв"|Французька Республіка|м.Ле Ман|Університет Ле Ман |23/01/2012|19/02/2012|Програма подвійного диплому|Н№219-с від 23.01.2012|За рахунок приймаючої     сторони||магістр| 4 місяців|ivanvakulko@gmail.com|
36||Греков Денис Ігорович |ХТФ|5|ХЕ-71|Кафедра "Технології електрохімічних виробництв"|Французька Республіка|м. Ле Ман |Університет Ле Ман |23/01/2012|31/08/2012|Програма подвійного диплому|Н№220 від 23.01.2012|За рахунок приймаючої     сторони||магістр|4 місяці|dionis_hr@ukr.net|
37|1|Мельниченко Іван Олександрович |ФІОТ|5|ІО-71|Кафедра "Обчислювальної техніки"|Французька Республіка|м. Ле Ман |Університет Ле Ман |23/01/2012|31/08/2012|Програма подвійного диплому|Н№119/2с від 23.01.2012|За рахунок приймаючої     сторони||магістр|4 місяці| skype: zilazim  ivan.melnychenko@yahoo.com   |
38|2|Бролінський Сергій Михайлович |ФІОТ|5|ІО-71|Кафедра "Обчислювальної техніки"|Французька Республіка|м. Ле Ман |Університет Ле Ман |23/01/2012|31/08/2012|Програма подвійного диплому|Н№119/2с від 23.01.2012|За рахунок приймаючої     сторони||магістр|4 місяці|darionwarlot@gmail.com|
39|1.|Виноградов Віталій Вікторович| ФАКС|5|ВА-71м|Кафедра автоматизації експерементальних досліджень|Федеративна Республіка Німеччина|м. Констанц|Спеціалізована школа м. Констанц|01/03/2012|31/05/2012|Програма обміну||||магістр|||
І -  семестр|||||||||||||||||||
1.|1|Огієнко Олексій Сергійович |ММІФ|6|БМ-71м|Біомедичної інженерії|Республіка Корея|м. Сеул|Корейський Інститут Науки та Технологій (КІСТ)|01/09/2012|31/01/2013|Програма подвійного диплому|Н№ 1876с від 31.08.2012|За рахунок приймаючої     сторони|11-Jan|магістр||ohiienko.oleksii@gmail.com|
2|2.|Молдавська Анастасія Юріївна |ММІФ|6|ІМ-71|Медичної кібернетики та телемедицини|Королівство Норвегія |м. Йовік|Університетський коледж Йовік|01/09/2012|31/12/2012|Програма обміну|Н№1880-с від 31.08.2012|За рахунок приймаючої     сторони|лист написала 11.12.2012|магістр||anastasiya.moldavskaya@mail.ru|
3|1.|Куксенко Дмитро Михзайлович|ПБФ|5|ПК-82|Приладів і систем неруйнівного контролю|Федеративна Республіка Німеччина||Технічний університет Брауншвайг|01/09/2012|30/11/2012|Стажування  |Н№ 1963-с від 04.09.2012|За рахунок приймаючої     сторони||магістр||kuksenko.dima@gmail.com|
4|1.|Ющенко Роман Володимирович|ФЛ|4|ЛА-91|Теорії, практики та перекладу англійської мови|Австрійська Республіка ||Грацький університет ім. Карла і Франца |01/09/2012|15/02/2013|Програма обміну в рамках проекту "EMERGE"|Н№1926с від 03.09.2012|За рахунок приймаючої сторони||бакалавр||student.roma.net@gmail.com|
5|2.|Позігун Дар'я  Олександріна |ФЛ|4|ЛА-93|Теорії, практики та перекладу англійської мови| Королі́вство Нідерла́ндів ||Університет Гронінгену|03/09/2012|15/02/2013|Програма обміну в рамках проекту "EMERGE"|Н№1926с від 03.09.2012|За рахунок приймаючої сторони||бакалавр||darya.pozigun@gmail.com|
6|3.|Строкань Вікторія Сергіївна|ФЛ|4|ЛА-91|Теорії, практики та перекладу англійської мови|Австрійська Республіка ||Грацький університет ім. Карла і Франца |01/09/2012|15/02/2013|Програма обміну в рамках проекту "EMERGE"|Н№1926с від 03.09.2012|За рахунок приймаючої сторони||бакалавр||victoria.strokan@gmail.com|
7|4.|Кіро Юлія Вікторівна|ФЛ|4|ЛА-93|Теорії, практики та перекладу англійської мови|Австрійська Республіка ||Грацький університет ім. Карла і Франца |01/09/2012|15/02/2013|Програма обмінув рамках проекту "EMERGE"|Н№1926с від 03.09.2012|За рахунок приймаючої сторони||бакалавр||yuliyakiro.nyschool@gmail.com|
8|1.|Баженова Анастасія Юріївна|ФБТ|5|БТ-81м|Кафедра промислової біотехнології|Федеративна Республіка Німеччина||Вестфальський технічний університет |17/09/2012|24/01/2013|Індивідуальна магістерська програма|Н№ 715/2с від 17.09.2012|За власний рахунок|Відрахована Н№44/2-с від 25.01.2013|магістр|11-Jan|nastja.bazhenova@hotmail.com|
9|1.|Гладій Ольга Ігорівна |ФМФ|6|ОФ-71|Загальної фізики та фізики твердого тіла|Французька Республіка|м.Ле Ман|Університет Ле Ман |10/09/2012|26/01/2013|Програма подвійного диплому МОН|Н№1828 від 31.08.2012|За рахунок приймаючої     сторони||магістр|11-Jan|gladiy_olga@ukr.net|
10|2.|Ігнатов Дмитро Володимирович|ФМФ|5|ОФ-81м|Фізика та фізика твердого тіла|Французька Республіка|м. Париж|Політехнічна школа|01/09/2012|20/01/2013|Співробітництво в рамках договору|Н№1827-с від 31.08.2012|За рахунок приймаючої     сторони||магістр||lomonosov1234@yandex.ru|
11|3.|Коваленко Олександр Юрійович |ФМФ|6|ОФ-71|Загальної фізики та фізики твердого тіла|Французька Республіка|м.Ле Ман|Університет Ле Ман |17/09/2012|26/01/2013|Програма подвійного диплому|Н№1959-с від 04.09.2012|За рахунок приймаючої     сторони||магістр|4 місяці|alexandre.kovalenko.mail@gmail.com|
12|4|Парій Анастасія Василівна |ФМФ|5|ОФ-81м|Загальної фізики та фізики твердого тіла|Французька Республіка|м.Ле Ман|Університет Ле Ман |10/09/2012|20/01/2013|Програма подвійного диплому|Н№2116-с від 21.09.2012|За власний рахунок|11-Jan|магістр||anastasiiaparii@gmail.com|
13|5|Шумило Володимир Олексійович|ФМФ|5|ОФ-81м|Загальної фізики та фізики твердого тіла|Французька Республіка|м.Ле Ман|Університет Ле Ман |10/09/2012|20/01/2013|Програма подвійного диплому|Н№2116-с від 21.09.2012|За власний рахунок|11-Jan|магістр||shumilophysic@gmail.com|
14|1.|Коханевич Ігор Володимирович|ФІОТ|5|ІО-81м|Обчислювальної техніки|Французька Республіка|м.Ле Ман|Університет Ле Ман |10/09/2012|20/01/2013|Програма подвійного диплому МОН |Н№756/2с від 28.09.2012|За рахунок приймаючої     сторони|11-Jan|магістр||igor.kokhanevych@gmail.com|
15|2.|Фастова Софія Сергіївна|ФІОТ|6|ІС-71м|Автоматизація систем обробки інформації та управління|Французька Республіка|м. Сент-Етьєн|Вища гірнича школа|24/09/2012|25/01/2013|Співробітництво в рамках договору |Н№756/2с від 28.09.2012|За рахунок приймаючої     сторони||магістр||s.fastova@gmail.com|
16|3.|Чубинський В'ячеслав Вікторович |ФІОТ|5|ІС-81м|Автоматизованих систем обробки інформації та управління |Французька Республіка|м. Ле Ман |Університет Ле Ман |10/09/2012|20/01/2013|Програма подвійного диплому МОН |Н№756/2с від 28.09.2012|За рахунок приймаючої     сторони|11-Jan|магістр||slavik_choubinskij@meta.ua|
17|4.|Поліщук Олег Вікторович|ФІОТ|5|ІО-81м|Обчислювальної техніки|Французька Республіка|м. Ле Ман |Університет Ле Ман |10/09/2012|20/01/2013|Програма подвійного диплому МОН|Н№756/2с від 28.09.2012|За рахунок приймаючої     сторони|11-Jan|магістр||oleg.polischuks@gmail.com|
18|5.|Денисенко Марія Вячеславівна|ФІОТ|3|ІО-02|Обчислювальної техніки|Федеративна Республіка Німеччина|м.Мерзебург|Вища школа м. Мерзебурга|13/09/2012|31/01/2013|Програма подвійного диплому|Н№748/2с від 27.09.2012|За рахунок приймаючої     сторони|11-Jan|бакалавр||denisenkom@yahoo.com|
19|6.|Осадчий Віктор Юрійович|ФІОТ|3|ІС-02|Автоматизованих систем обробки інформації та управління |Федеративна Республіка Німеччина|м.Мерзебург|Вища школа|13/09/2012|31/01/2013|Програма подвійного диплому|Н№748/2с від 27.09.2012|За рахунок приймаючої     сторони|11-Jan|бакалавр||el_capone@bigmir.net|
20||Чемерис Андрій Михайлович|ФІОТ|5|ІС-81м|Автоматизованих систем обробки інформації та управління |Федеративна Республіка Німеччина|Мерзебург|Факультет інфороматики та систем комунікації Вища школа|30/09/2012|28/12/2012|Програма обміну|Н№754/2с від 27.09.2012|За рахунок приймаючої     сторони||магістр||chemeris1991@gmail.com|
21||Мельниченко Іван Олександрович |ФІОТ|6|ІО-71|Кафедра "Обчислювальної техніки"|Французька Республіка|м. Ле Ман |Університет Ле Ман |10/09/2012|20/01/2013|Програма подвійного диплому|Н№758/2с від 28.09.2012|За власний рахунок||магістр|4 місяці| skype: zilazim  ivan.melnychenko@yahoo.com   |
22||Бролінський Сергій Михайлович |ФІОТ|6|ІО-71|Кафедра "Обчислювальної техніки"|Французька Республіка|м. Ле Ман |Університет Ле Ман |10/09/2012|20/01/2013|Програма подвійного диплому|Н№755/2с від 28.09.2012|За власний рахунок|11-Jan|магістр|4 місяці|brol.sergii@gmail.com|
23||Черняєв  Костянтин Олексійович|ІЕЕ|5|ОМ-82м|Електромеханічного обладнання енергоємних виробництв| Королі́вство Нідерла́ндів ||Університет Гронінгену|01/09/2012|28/01/2013|Програма обміну в рамках проекту "EMERGE"|Н№673/2с від 31.08.2012|За рахунок приймаючої     сторони|11-Jan|магістр||chernyaev.k.a@gmail.com|
24|1.|Клопота Микола Павлович |ІЕЕ|5|ОН-81м|Електропостачання|Королівство Норвегія |м.Порсгрунн|Університетський Коледж Телемарк|01/09/2012|20/01/2013|Програма обміну|Н№673/2с від 31.08.2012|За рахунок приймаючої     сторони||магістр||plavec90@ukr.net|
25|2.|Рабчук Катерина Володимирівна |ІЕЕ|5|ОН-81м|Електропостачання|Королівство Норвегія |м.Порсгрунн|Університетський Коледж Телемарк|01/09/2012|20/01/2013|Співробітництво в рамках договору|Н№673/2с від 31.08.2012|За рахунок приймаючої     сторони||магістр||kit_kat19@ukr.net|
26|3.|Ніколаєва Наталія Вікторівна|ІЕЕ|6|ОЗ-71|Інженерна екологія|Королівство Норвегія |м. Порсгрунн|Університетський Коледж Телемарк|01/09/2012|20/01/2013|Співробітництво в рамках договору|Н№673/2с від 31.08.2012|За рахунок приймаючої     сторони||магістр||nikolaieva.nataliia@gmail.com |
27|4.|Котенко Максим Ростиславович|ІЕЕ|5|ОТ-81м|Теплотехніки та енергозбереження|Королівство Норвегія |м. Порсгрунн|Університетський Коледж Телемарк|01/09/2012|20/01/2013|Програма обміну|Н№673/2с від 31.08.2012|За рахунок приймаючої     сторони||магістр|||
28|5.|Кібякова Ганна Євгенівна|ІЕЕ|5|ОТ-81м|Теплотехніки та енергозбереження|Королівство Норвегія |м. Порсгрунн|Університетський Коледж Телемарк|01/09/2012|20/01/2013|Співробітництво в рамках договору|Н№673/2с від 31.08.2012|За рахунок приймаючої     сторони||магістр|||
29|6.|Праховнік Артур Констянтинович|ІЕЕ|6|ОН-71|Кафедра "Електропостачання"|Королівство Норвегія |м. Порсгрунн|Університетський Коледж Телемарк|01/09/2012|18/01/2013|Співробітництво в рамках договору|Н№667/2с від 31.08.2012|За рахунок приймаючої     сторони|11.01.|магістр||arthur.prakh@gmail.com|
30|1|Сухенко Василина Володимирівна|ФЕА|6|ЕТ-72|Електричних станцій|Королівство Норвегія |м. Йовік|Університетський Коледж Йовік|01/09/2012|27/01/2013|Програма обміну|Н№587/2с від 30.08.2012|За рахунок приймаючої     сторони||магістр|||
31|1.|Урукова Анна Олексіївна|ФММ|4|УС-92|Міжнародної економіки|Австрійська Республіка ||Грацький університет ім. Карла і Франца |03/09/2012|15/02/2013|Програма обміну в рамках проекту "EMERGE"|Н№ 1863с від 31.08.2012|За рахунок приймаючої     сторони||бакалавр||anna.urukova@gmail.com|
32|2.|Брижатий Ігор Сергійович|ФММ|4|УВ-91|Менеджмент|Австрійська Республіка ||Грацький університет ім. Карла і Франца |03/09/2012|15/02/2013|Програма обміну в рамках проекту "EMERGE"|Н№1862с від 31.08.2012|За рахунок приймаючої     сторони|лист написала 24.10.2012|бакалавр||bryzhatyi@gmail.com <bryzhatyi@gmail.com>|
33|3.|Гандабур Христина Василівна|ФММ|6|УК-71м|ММЕС|Французька Республіка|м.Ле Ман|Університет Ле Ман |10/09/2012|28/10/2012|Програма подвійного диплому|Н№1961с від 04.09.2012|За рахунок приймаючої     сторони|лист написала 24.10.2012|магістр||g.kristi.v@gmail.com|
34|4|Щербата Тетяна Сергіївна|ФММ|6|УВ-71м|Менеджменту|Республіка Польща|м.Краків|Ягелонський університет|28/09/2012|28/10/2012|Програма обміну в рамках проекту "EMERGE"|Н№2112с від 20.09.2012|За рахунок приймаючої     сторони||магістр||tanyascha@i.ua|
35|5|Чеберніна Аліна Юріївна|ФММ|5|УС-81с|Міжнародної економіки|Федеративна Республіка Німеччина||Вища Берлінська школа економіки та права|01/10/2012|30/01/2013|Індивідуальна магістерська програма  |Н№2134с від 27.09.2012|За власний рахунок|11-Jan|магістр||a.chebernina@gmail.com|
36|6|Барановська Анастасія Анатоліївна|ФММ|3|УМ-01м|Промислового маркетингу|Австрійська Республіка ||Університет ім. Фрідріха Шиллера|01/10/2012|31/01/2013|Програма обміну в рамках проекту "EMERGE"|Н№2135с від 27.09.2012|За рахунок приймаючої     сторони|написати у кінці квітня|бакалавр||um-01.baranovska@ukr.net|
37|7|Жидецький Цезарій Юрійович|ФММ|4|УЕ-81|Кафедра "Економіки і підприємництва"|Федеративна Республіка Німеччина||Рурський університет Бохума|24/09/2012|22/01/2013|Індивідуальна бакалаврська програма|Н№2114с від 21.09.2012|За рахунок приймаючої     сторони|11/01/2013|бакалавр|4 місяці|cesar.kpi@gmail.com|
38|8|Видута Максим Юрійович|ФММ|5|УЕ-81с|Економіки і підприємства|Республіка Польща|м. Вроцлав|Міжнародна вища школа логістики і транспорту|01/10/2012|22/01/2013|Індивідуальна магістерська програма  |Н№2144с від 27.09.2012|За власний рахунок|11/01/2013|спеціаліст||marcvid@gmail.com|
39|9|Шкуротян Олександра Юріївна |ФММ|5|УД-81м|Менеджменту та маркетингу|Республіка Польща||Компанія Magneti Marelli|01/10/2012|29/12/2012|Стажування  |Н№2169с від 01.10.2012|За власний рахунок||магістр||alexandra.shkurotiana@gmail.com|
40|1|Бахтоваршоєв Гіясіддін Алігавхарович|ФПМ|6|КВ-71м|Спеціалізовані компютерні системи |Французька Республіка||Політехнічна школа|01/09/2012|20/01/2013|Співробітництво в рамках договору|Н№ 1935-с від 03.09.2012|За рахунок приймаючої     сторони|лист написала 11.12.2012|магістр||ecureuilkpi@gmail.com|
41|1.|Бєлобородова Євгеній Романович|ФАКС|3|ВЛ-03|Приладів і систем керування літальними апаратами|США||Університет Морхед|01/09/2012|30/12/2012|Індивідуальна бакалаврська програма|Н№ 645/2с від 31.08.2012|За власний рахунок||бакалавр||charger72@yandex.ru|
42|1.|Веражак Маряна Андріївна |ІФФ|6|ФМ-71|Кафедра "Фізика меалів"|Французька Республіка||Університет Ренну1|01/09/2012|20/01/2013|Індивідуальна магістерська програма  |Н№1925-с від 03.09.2012|За рахунок приймаючої     сторони||магістр|11-Jan|avemaryana@gmail.com|
43|1.|Лосік Артур Вадимивоч |ФЕЛ|5|ДСм-81|Промислової електроніки|Федеративна Республіка Німеччина|м. Ахен|Рейнсько-Вестфальский технічний університет|17/09/2012|20/01/2013|Індивідуальна магістерська програма  |Н№1808-с від 31.08.2012|Фінансування навчання здійснюється за власний рахунок|Відрахований  Н№2587-с від 26.12.2012|магістр|11-Jan|Rutra@bigmir.net|
44|2.|Беднарська Катерина Володимирівна|ФЕЛ|6|ДЗм-71|Звукотехніки та реєстрації інформації|Королівство Норвегія |м. Гйовік|Університетський Коледж|01/09/2012|28/12/2012|Співробітництво в рамках договору|Н№1808-с від 31.08.2012|За рахунок приймаючої     сторони|Відрахована Н№250-с від 31.01.2013|магістр|лист написала 11.12.2012|bednarskykv@hotmail.com|
45|3.|Червонюк Михайло Олегович|ФЕЛ|6|ДВм-81|З та РІ|Федеративна Республіка Німеччина|м.Ульм|ТОВ "Інфітек"|01/09/2012|30/12/2012|Стажування  |Н№1808-с від 31.08.2012|За рахунок приймаючої     сторони||магістр|лист написала 11.12.2012|chervoniuk@gmail.com |
46|4|Єгоренков Артемій Анатолійович |ФЕЛ|6|ДЗм-71|Звукотехніки та реєстрації інформації|Федеративна Республіка Німеччина||Університет Ерлангена-Нюрберга|01/09/2012|28/12/2012|Індивідуальна магістерська програма|Н№1808-с від 31.08.2012|Фінансування навчання здійснюється за власний рахунок||магістр||iegorenkov@ukr.net|
47|5|Кириченко Михайло Вячеславович |ФЕЛ|6|ДЕм-71|Електронних приладів та пристроїв |Федеративна Республіка Німеччина|м.Дрезден|Дрезденський технічний університет|01/11/2012|31/01/2013|Програма подвійного диплому|Н№2317с від 07.11.2012|За рахунок приймаючої     сторони||магістр|11-Jan|nischutja@gmail.com|
48|6|Осмоловський Сергій Олександрович|ФЕЛ|6|ДЕм-71|Електронних приладів та пристроїв |Федеративна Республіка Німеччина|м.Дрезден|Дрезденський технічний університет|01/11/2012|31/01/2013|Програма подвійного диплому|Н№2317с від 07.11.2012|За рахунок приймаючої     сторони||магістр|11-Jan|waspant@gmail.com|
49|7.|Чапний Тарас Михайлович|ФЕЛ|6|ДЕм-71|Електронних приладів та пристроїв |Федеративна Республіка Німеччина|м.Дрезден|Дрезденський технічний університет|01/11/2012|31/01/2013|Програма подвійного диплому|Н№2317с від 07.11.2012|За рахунок приймаючої     сторони||магістр|11-Jan|tarasmihaluch@ukr.net|
50|1|Омельчук Катерина Олександрівна |ХТФ|5|ХО-81м|ОХ та ТОР|Французька Республіка|м. Ле Ман|Університет Ле Ман |01/09/2012|31/01/2013|Програма подвійного диплому|Н№1890-с від 31.08.2012|Фінансування навчання здійснюється за власний рахунок| |магістр|11-Jan|katrushkaua@gmail.com|
51|2|Мілоцький Роман Вадимович|ХТФ|5|ХП-81м|Хімічної технології композиційних матеріалів|Французька Республіка| м. Ле Ман|Університет Ле Ман |01/09/2012|31/01/2013|Програма подвійного диплому|Н№1890-с від 31.08.2012|Фінансування навчання здійснюється за власний рахунок| |магістр|11-Jan|roman_milotskyy@mail.ru|
52|3|Охріменко Лариса Миколаївна |ХТФ|6|ХН-71|Кафедра "Технології неорганічних речовин  та зальної хімічної технології"|Французька Республіка|м. Ле Ман |Університет Ле Ман |10/09/2012|31/01/2013|Програма подвійного диплому|Н№2113-с від 20.09.2012|За рахунок приймаючої     сторони||магістр|11-Jan|okhrimenko_larysa@mail.ru|
53|4|Греков Денис Ігорович |ХТФ|6|ХЕ-71|Кафедра "Технології електрохімічних виробництв"|Французька Республіка|м. Ле Ман |Університет Ле Ман |17/09/2012|31/01/2013|Програма подвійного диплому|Н№2113-с від 20.09.2012|За рахунок приймаючої     сторони||магістр|11-Jan|dionis_hr@ukr.net|
54|1.|Мельниченко Ірина Геннадіївна |ВПІ|3|СК-01|Організації видавничої справи, поліграфії і книгорозповсюдження |Австрійська Республіка ||Грацький університет ім. Карла і Франца |01/09/2012|15/02/2013|Програма обміну в рамках проекту "EMERGE"|Н№669/2с від 31.08.2012|За рахунок приймаючої     сторони||бакалавр||iraveles@gmail.com|
55|1.|Жданенко Олександр Вікторович|ІТС|6|ТІ-71м|Інформаційно-телекомунікаційних мереж|Федеративна Республіка Німеччина|м. Дрезден|Дрезденський технічний університет|01/10/2012|31/01/2013|Програма подвійного диплому МОН|Н№2162-с від 01.10.2012|Фінансування здуснює МОНМтаС||магістр||aleksandr.zd@gmail.com|
56|2.|Приходько Ольга Олександрівна|ІТС|6|ТІ-71м|Інформаційно-телекомунікаційних мереж|Федеративна Республіка Німеччина|м. Дрезден|Дрезденський технічний університет|01/10/2012|31/01/2013|Програма подвійного диплому МОН|Н№2162-с від 01.10.2012|Фінансування здуснює МОНМтаС||магістр|11-Jan|olya.prihodko@gmail.com|
57|3.|Шалбанов Костянтин Вікторович|ІТС|6|ТС-73м|Телекомунікації|Федеративна Республіка Німеччина|м. Дрезден|Дрезденський технічний університет|01/10/2012|29/12/2012|Програма подвійного диплому МОН|Н№2162-с від 01.10.2012|Фінансування здуснює МОНМтаС||магістр|лист написала 11.12.2012|kos_02@mail.ru|
58|4.|Ганюков Едуард Олегович|ІТС|6|ТС-73м|Телекомунікації|Федеративна Республіка Німеччина|м. Дрезден|Дрезденський технічний університет|01/10/2012|29/12/2012|Програма подвійного диплому МОН|Н№2162-с від 01.10.2012|Фінансування здуснює МОНМтаС||магістр||edison@email.ua|
59|5.|Бондаренко Володимир Юрійович|ІТС|6|ТІ-71м|Інформаційно-телекомунікаційних мереж|Федеративна Республіка Німеччина|м. Дрезден|Дрезденський технічний університет|01/10/2012|31/01/2013|Програма подвійного диплому МОН|Н№2162-с від 01.10.2012|Фінансування здуснює МОНМтаС||магістр|11-Jan|volodymyr.Bondarenko.ua@gmail.com|
60|1|Вечеринська Олена Сергіївна|ФСП|5|Амм-84|Філософії|Французька Республіка|м. Ле Ман|Факультет Управління і права|01/09/2012|30/01/2013|Індивідуальна магістерська програма|Н№2239-с від 18.10.2012|||магістр|11-Jan|neverovskaya@meta.ua|
