|||||||||||||
№|ПІБ|Ф-т|Курс|Група|Кафедра|Країна|Місто|Заклад|Дата від'їзду|Дата приїзду|Програма|Примітки|Контакти
||||||2005 рік|||||||
1.|Левицький-Пироженко Дмитро Павлович|ІЕЕ|5|ОЗ-13|Інженерної екології|    Польща |м.Вроцлав|Вроцлавська Політехніка|27/09/2005|31/08/2006|Повний курс навчання Магістерська програма              Н № 4024-с від 27.09.2005р.                  |Подовження академічної відпустки                      Н № 679-с від 1.03.07 |
