||||||||||||
№|ПІБ|Факультет|Курс|Група|Кафедра|Країна|Заклад|Дата від'їзду|Дата приїзду|Програма|Примітки|Контакти
||||||2006 рік||||||
1.|Рековець                                   Наталья Олексіївна |ФАКС|6|ВА-12|Кафедра Автоматизації експерименталь них досліджень|Федеративна Республіка Німеччина               м. Мюнхен|Технічний університет            м. Мюнхен |01/10/2006| 01.12.2006|Стажування  в освітній установі|Все здано вчасно Приступила до навчання |
