№|ПІБ|Ф-т|Курс|Група|Кафедра|Країна|Місто|Заклад|Дата від'їзду|Дата приїзду|Програма|Примітки|Контакти
||||||2006 рік|||||||
1.|Хоперська      Ірина Анатоліївна|ФС|4|АМ-21|Адміністративний менеджмент| Республика  Ісландія |м. Рейк’явік|Університет м.Рейк'явів|01/02/2006|01/02/2007|Стажування              Н № 650с від 14.02. 2006р.   |Приступила до навчання після а/в Н№49-с від 16.01.2007 |
2.|Івченко      Марина Володимирівна|ФС|4|АМ-21|Адміністративний менеджмент|Республика Ісландія                  |м. Рейк’явік|Університет м.Рейк'явів|01/02/2006|01/02/2007|Стажування              Н № 650с від 14.02. 2006р.   |Приступила до навчання після а/в Н№49-с від 16.01.2007 |
3.|Печкуров      Петро Петрович |ХТФ|5|ХН-21|Технології неорганічних речовин та загальної хімічної технології|            Французька Республіка         | м. Ліон|Освітня установа Universite Jean Moulin. м. Ліон |01/09/2006|31/08/2007| Програма по міжнародному обміну  Н№  3184c від 14/09/06|Приступив до навчання Н №2206-с від 31.06.2007  Індивідуальний графік   Н № 2476-с від 19.09.07 |
4.|Полтавець Ірина Володимирівна|ФММ|4|УЗ-32|Кафедра економіки| Федеративна Республіка Німеччина|м. Бохум |Рурський Університет м. Бохум|15/09/2006|01/09/2007|Стипендіальна програма DAAD                Н №3264c від18/09/06|Подовження    академічної відпустки   Н №2328c від10.09.07|
5.|Демидова      Влада Валеріївна |ФММ|5|УМ-21М|Промислового маркетингу|      Естонська Республіка            |м. Таллін|Таллінський технічний університет        |01/09/2006|01/09/2007|Навчання на один академічний рік    Н №2732-с від 30.08.2006 р.|Відрахована з університету. Не приступила до навчання після а/в                       Н №2391-с від 11.09.07|
6.|Бузько          Сергій Сергійович|ФММ|4|УЗ-31|Менеджменту|     Італійська Республіка                |м. Болонья |університет              м. Болонья                 |20/10/2006|20/10/2007|Навчання на один академічний рік    Н № 3529 с від 26.10.2006 |Відрахований               Н №2009-c від 30.08.07   за власним бажанням|
7.|Курочка           Ірина Миколаївна|ФЕА|6|ЕК-11|Автоматизації енергосистем|   Швейцарська Конфедерація           |м. Стокгольм|Королівський інститут технологій     |23/08/2006|01/09/2007|Магістерська програма                     Н № 666/2с від 8.09.2006р.|Індивідуальний графік   Н 1271/2с від 14.09.07 |
8.|Левицький-Пироженко Дмитро Павлович|ІЕЕ|5|ОЗ-21|Інженерної екології|  Республіка Польща |м.Вроцлав|Вроцлавська Політехніка|01/09/2006|31/08/2007|Магістерська програма                     Н № 679с від 1.03.07|Відрахований з університету. Не приступив до навчання Н № 2482-с від 19.09.07|
9.|Корнієнко       Антон Володимирович|ФАКС|5|ВЛ-22|Приладів та систем керування літальними апаратами|Французька Республіка |м.Ліон|Центральна Школа    м. Ліона|01/09/2006|01/09/2007|Навчання на один академічний рік    Н №44/2-1 від 19.01.2007|Приступив до навчанн Н № 1234/2-с від 11.09.07|
